%YAML 1.1
%TAG !u! tag:unity3d.com,2011:
--- !u!114 &11400000
MonoBehaviour:
  m_ObjectHideFlags: 0
  m_CorrespondingSourceObject: {fileID: 0}
  m_PrefabInstance: {fileID: 0}
  m_PrefabAsset: {fileID: 0}
  m_GameObject: {fileID: 0}
  m_Enabled: 1
  m_EditorHideFlags: 0
  m_Script: {fileID: 11500000, guid: 622bc341dfd00e74c91bdd55d18f6469, type: 3}
  m_Name: 022
  m_EditorClassIdentifier: 
  serializationData:
    SerializedFormat: 2
    SerializedBytes: 
    ReferencedUnityObjects: []
    SerializedBytesString: 
    Prefab: {fileID: 0}
    PrefabModificationsReferencedUnityObjects: []
    PrefabModifications: []
    SerializationNodes: []
  MoneyReward: 540
  Chunks:
  - Chunk: {fileID: 7188547535941045054, guid: 5ee5b471c407b034d929998d41bb27f1, type: 3}
    Flipped: 1
  - Chunk: {fileID: 5455351772025055637, guid: 1c867b207041aa542b234181dc51af34, type: 3}
    Flipped: 1
  - Chunk: {fileID: 5895403218165164613, guid: 6266dd5c1da30514eb2b870f28c98e97, type: 3}
    Flipped: 0
  - Chunk: {fileID: 5455351772025055637, guid: 1c867b207041aa542b234181dc51af34, type: 3}
    Flipped: 1
  - Chunk: {fileID: 5455351772025055637, guid: 1c867b207041aa542b234181dc51af34, type: 3}
    Flipped: 0
  - Chunk: {fileID: 8682278344655041044, guid: e972f0987dd5170409a4993e13168079, type: 3}
    Flipped: 0
  - Chunk: {fileID: 7677927105847728621, guid: 6439aea4b19ae974da152d4e6ce56658, type: 3}
    Flipped: 1
  - Chunk: {fileID: 8449094234783003605, guid: fee4d1cc6534f88479aa133b4969d9b5, type: 3}
    Flipped: 1
  - Chunk: {fileID: 7677927105847728621, guid: 6439aea4b19ae974da152d4e6ce56658, type: 3}
    Flipped: 0
  - Chunk: {fileID: 1759879216900511863, guid: b8ef8b2b724b2bb44b9732fbef0e364e, type: 3}
    Flipped: 0
  - Chunk: {fileID: 4457547124055729271, guid: 9a30605750ebd804bb29ce79ad5b0bf2, type: 3}
    Flipped: 0
  - Chunk: {fileID: 1713248715373230965, guid: f97bccdf9c5fe2f4e960e31048afaa09, type: 3}
    Flipped: 0
