%YAML 1.1
%TAG !u! tag:unity3d.com,2011:
--- !u!114 &1
MonoBehaviour:
  m_ObjectHideFlags: 53
  m_CorrespondingSourceObject: {fileID: 0}
  m_PrefabInstance: {fileID: 0}
  m_PrefabAsset: {fileID: 0}
  m_GameObject: {fileID: 0}
  m_Enabled: 1
  m_EditorHideFlags: 0
  m_Script: {fileID: 11500000, guid: af51af3e19e32d348888d403e641a9a4, type: 3}
  m_Name: 
  m_EditorClassIdentifier: 
  _isEnabled: 1
  _files:
  - _type: 1
    _path: Assets/_Main/UI/Button-center.uxml
  - _type: 1
    _path: Assets/_Main/UI/Button-square.uxml
  - _type: 1
    _path: Assets/_Main/UI/ButtonSquare.uxml
  - _type: 0
    _path: Assets/_Main/UI/LevelsMenuScreen.uxml
  - _type: 0
    _path: Assets/_Main/UI/GamePlayView.uxml
  - _type: 0
    _path: Assets/_Main/UI/MainMenuView.uxml
  - _type: 1
    _path: Assets/_Main/UI/LevelButton.uxml
  - _type: 0
    _path: Assets/_Main/UI/GameOverScreen.uxml
  - _type: 1
    _path: Assets/_Main/UI/LevelButtonUI.uxml
