%YAML 1.1
%TAG !u! tag:unity3d.com,2011:
--- !u!1 &8634693653380261141
GameObject:
  m_ObjectHideFlags: 0
  m_CorrespondingSourceObject: {fileID: 0}
  m_PrefabInstance: {fileID: 0}
  m_PrefabAsset: {fileID: 0}
  serializedVersion: 6
  m_Component:
  - component: {fileID: 4364083474341787334}
  - component: {fileID: 5584858109870358401}
  - component: {fileID: 7637272958254003237}
  - component: {fileID: 6096975051919329383}
  m_Layer: 0
  m_Name: E5
  m_TagString: other
  m_Icon: {fileID: 0}
  m_NavMeshLayer: 0
  m_StaticEditorFlags: 0
  m_IsActive: 1
--- !u!4 &4364083474341787334
Transform:
  m_ObjectHideFlags: 0
  m_CorrespondingSourceObject: {fileID: 0}
  m_PrefabInstance: {fileID: 0}
  m_PrefabAsset: {fileID: 0}
  m_GameObject: {fileID: 8634693653380261141}
  m_LocalRotation: {x: 0, y: 0, z: 0, w: 1}
  m_LocalPosition: {x: -2.5559998, y: 1.802, z: 0}
  m_LocalScale: {x: 0.1, y: 0.1, z: 1}
  m_Children: []
  m_Father: {fileID: 0}
  m_RootOrder: 0
  m_LocalEulerAnglesHint: {x: 0, y: 0, z: 0}
--- !u!212 &5584858109870358401
SpriteRenderer:
  m_ObjectHideFlags: 0
  m_CorrespondingSourceObject: {fileID: 0}
  m_PrefabInstance: {fileID: 0}
  m_PrefabAsset: {fileID: 0}
  m_GameObject: {fileID: 8634693653380261141}
  m_Enabled: 1
  m_CastShadows: 0
  m_ReceiveShadows: 0
  m_DynamicOccludee: 1
  m_StaticShadowCaster: 0
  m_MotionVectors: 1
  m_LightProbeUsage: 1
  m_ReflectionProbeUsage: 1
  m_RayTracingMode: 0
  m_RayTraceProcedural: 0
  m_RenderingLayerMask: 1
  m_RendererPriority: 0
  m_Materials:
  - {fileID: 10754, guid: 0000000000000000f000000000000000, type: 0}
  m_StaticBatchInfo:
    firstSubMesh: 0
    subMeshCount: 0
  m_StaticBatchRoot: {fileID: 0}
  m_ProbeAnchor: {fileID: 0}
  m_LightProbeVolumeOverride: {fileID: 0}
  m_ScaleInLightmap: 1
  m_ReceiveGI: 1
  m_PreserveUVs: 0
  m_IgnoreNormalsForChartDetection: 0
  m_ImportantGI: 0
  m_StitchLightmapSeams: 1
  m_SelectedEditorRenderState: 0
  m_MinimumChartSize: 4
  m_AutoUVMaxDistance: 0.5
  m_AutoUVMaxAngle: 89
  m_LightmapParameters: {fileID: 0}
  m_SortingLayerID: 0
  m_SortingLayer: 0
  m_SortingOrder: 0
  m_Sprite: {fileID: 21300000, guid: 8f3fe762694d2fa4c9e2003d9e18c649, type: 3}
  m_Color: {r: 0, g: 0, b: 0, a: 1}
  m_FlipX: 0
  m_FlipY: 0
  m_DrawMode: 0
  m_Size: {x: 5.12, y: 5.12}
  m_AdaptiveModeThreshold: 0.5
  m_SpriteTileMode: 0
  m_WasSpriteAssigned: 1
  m_MaskInteraction: 0
  m_SpriteSortPoint: 0
--- !u!60 &7637272958254003237
PolygonCollider2D:
  m_ObjectHideFlags: 0
  m_CorrespondingSourceObject: {fileID: 0}
  m_PrefabInstance: {fileID: 0}
  m_PrefabAsset: {fileID: 0}
  m_GameObject: {fileID: 8634693653380261141}
  m_Enabled: 1
  m_Density: 1
  m_Material: {fileID: 0}
  m_IsTrigger: 0
  m_UsedByEffector: 0
  m_UsedByComposite: 0
  m_Offset: {x: 0, y: 0}
  m_SpriteTilingProperty:
    border: {x: 0, y: 0, z: 0, w: 0}
    pivot: {x: 0.5, y: 0.5}
    oldSize: {x: 5.12, y: 5.12}
    newSize: {x: 5.12, y: 5.12}
    adaptiveTilingThreshold: 0.5
    drawMode: 0
    adaptiveTiling: 0
  m_AutoTiling: 0
  m_Points:
    m_Paths:
    - - {x: 1.9599999, y: -1.86}
      - {x: 1.9399999, y: -1.81}
      - {x: 1.87, y: -1.8}
      - {x: 1.6899999, y: -1.79}
      - {x: 1.4, y: -1.76}
      - {x: 1.13, y: -1.7099999}
      - {x: 0.90999997, y: -1.65}
      - {x: 0.85999995, y: -1.62}
      - {x: 0.71, y: -1.54}
      - {x: 0.57, y: -1.4499999}
      - {x: 0.48999998, y: -1.36}
      - {x: 0.39999998, y: -1.26}
      - {x: 0.42999998, y: -1.25}
      - {x: 0.65, y: -1.35}
      - {x: 0.74, y: -1.39}
      - {x: 0.90999997, y: -1.42}
      - {x: 0.96999997, y: -1.43}
      - {x: 1.06, y: -1.4399999}
      - {x: 1.35, y: -1.4399999}
      - {x: 1.56, y: -1.41}
      - {x: 1.76, y: -1.35}
      - {x: 1.9499999, y: -1.26}
      - {x: 2.1299999, y: -1.14}
      - {x: 2.28, y: -0.97999996}
      - {x: 2.33, y: -0.88}
      - {x: 2.4099998, y: -0.71}
      - {x: 2.4299998, y: -0.62}
      - {x: 2.4299998, y: -0.41}
      - {x: 2.4199998, y: -0.34}
      - {x: 2.3999999, y: -0.24}
      - {x: 2.34, y: -0.08}
      - {x: 2.25, y: 0.07}
      - {x: 2.18, y: 0.16}
      - {x: 1.9599999, y: 0.37}
      - {x: 1.77, y: 0.52}
      - {x: 1.56, y: 0.68}
      - {x: 1.38, y: 0.78999996}
      - {x: 1.22, y: 0.9}
      - {x: 1.09, y: 0.98999995}
      - {x: 0.84999996, y: 1.16}
      - {x: 0.63, y: 1.35}
      - {x: 0.48999998, y: 1.5}
      - {x: 0.35, y: 1.7099999}
      - {x: 0.24, y: 1.9}
      - {x: 0.24, y: 1.92}
      - {x: 0.11, y: 2.3}
      - {x: 0.08, y: 2.33}
      - {x: -0.11, y: 2.33}
      - {x: -0.14, y: 2.3}
      - {x: -0.24, y: 1.9699999}
      - {x: -0.31, y: 1.79}
      - {x: -0.39, y: 1.65}
      - {x: -0.55, y: 1.43}
      - {x: -0.55, y: 1.42}
      - {x: -0.78, y: 1.2099999}
      - {x: -0.95, y: 1.0699999}
      - {x: -1.13, y: 0.95}
      - {x: -1.4599999, y: 0.74}
      - {x: -1.64, y: 0.63}
      - {x: -1.79, y: 0.53}
      - {x: -1.87, y: 0.47}
      - {x: -2.01, y: 0.35}
      - {x: -2.21, y: 0.14999999}
      - {x: -2.25, y: 0.099999994}
      - {x: -2.31, y: 0.03}
      - {x: -2.4099998, y: -0.17999999}
      - {x: -2.45, y: -0.28}
      - {x: -2.46, y: -0.45999998}
      - {x: -2.46, y: -0.57}
      - {x: -2.45, y: -0.62}
      - {x: -2.4099998, y: -0.77}
      - {x: -2.35, y: -0.9}
      - {x: -2.27, y: -1.01}
      - {x: -2.1299999, y: -1.14}
      - {x: -2.05, y: -1.2099999}
      - {x: -1.9699999, y: -1.26}
      - {x: -1.8, y: -1.3399999}
      - {x: -1.6899999, y: -1.38}
      - {x: -1.5799999, y: -1.41}
      - {x: -1.38, y: -1.4399999}
      - {x: -1.0799999, y: -1.4399999}
      - {x: -0.98999995, y: -1.43}
      - {x: -0.82, y: -1.4}
      - {x: -0.7, y: -1.37}
      - {x: -0.41, y: -1.26}
      - {x: -0.59999996, y: -1.4699999}
      - {x: -0.72999996, y: -1.56}
      - {x: -0.97999996, y: -1.67}
      - {x: -1.06, y: -1.6899999}
      - {x: -1.26, y: -1.75}
      - {x: -1.48, y: -1.78}
      - {x: -1.5999999, y: -1.79}
      - {x: -1.61, y: -1.8}
      - {x: -1.9399999, y: -1.8}
      - {x: -1.9599999, y: -1.81}
      - {x: -1.99, y: -1.88}
      - {x: -2.03, y: -2.04}
      - {x: -2.09, y: -2.21}
      - {x: -2.11, y: -2.34}
      - {x: -2.09, y: -2.36}
      - {x: 2.06, y: -2.36}
      - {x: 2.08, y: -2.34}
      - {x: 2.07, y: -2.28}
      - {x: 2.05, y: -2.2}
--- !u!114 &6096975051919329383
MonoBehaviour:
  m_ObjectHideFlags: 0
  m_CorrespondingSourceObject: {fileID: 0}
  m_PrefabInstance: {fileID: 0}
  m_PrefabAsset: {fileID: 0}
  m_GameObject: {fileID: 8634693653380261141}
  m_Enabled: 1
  m_EditorHideFlags: 0
  m_Script: {fileID: 11500000, guid: 6a406b99966571f43959c57aae5bc767, type: 3}
  m_Name: 
  m_EditorClassIdentifier: 
  serializationData:
    SerializedFormat: 2
    SerializedBytes: 
    ReferencedUnityObjects: []
    SerializedBytesString: 
    Prefab: {fileID: 0}
    PrefabModificationsReferencedUnityObjects: []
    PrefabModifications: []
    SerializationNodes: []
  ScoreValue: 10
  HitClip: {fileID: 0}
