{
    "m_SelectedDeviceId": "RFCT70WXEDF",
    "m_SelectedProcess": {
        "deviceId": "",
        "name": "",
        "processId": 0,
        "exited": false
    },
    "m_SelectedPriority": 0,
    "m_KnownProcessesForSerialization": [
        {
            "deviceId": "RFCT70WXEDF",
            "name": "com.arikan.neon",
            "processId": 11696,
            "exited": true
        },
        {
            "deviceId": "RFCT70WXEDF",
            "name": "com.sec.android.app.launcher",
            "processId": 7235,
            "exited": false
        }
    ],
    "m_Tags": {
        "m_Entries": [
            {
                "m_Name": "Filter by all listed tags",
                "m_Selected": false
            },
            {
                "m_Name": "No Filter",
                "m_Selected": true
            },
            {
                "m_Name": "",
                "m_Selected": false
            },
            {
                "m_Name": "Tag Control...",
                "m_Selected": false
            },
            {
                "m_Name": "",
                "m_Selected": false
            },
            {
                "m_Name": "Unity",
                "m_Selected": false
            },
            {
                "m_Name": "CRASH",
                "m_Selected": false
            }
        ]
    },
    "m_ExtraWindowState": {
        "Type": 0,
        "Height": 0.0
    },
    "m_MemoryViewerState": {
        "MemoryWindowWidth": 170.0,
        "MemoryTypeEnabled": [
            true,
            true,
            true,
            true,
            true,
            true,
            true,
            true,
            true,
            true
        ],
        "MemoryGroup": 2,
        "AutoCapture": true
    },
    "m_FilterOptions": {
        "m_Filter": "",
        "m_UseRegularExpressions": false,
        "m_MatchCase": false
    },
    "m_SymbolPaths": [],
    "m_CaptureVideoSettings": {
        "TimeLimitEnabled": false,
        "TimeLimit": 180,
        "VideoSizeEnabled": false,
        "VideoSizeX": 1280,
        "VideoSizeY": 720,
        "BitRateEnabled": false,
        "BitRateK": 20000,
        "DisplayIdEnabled": false,
        "DisplayId": ""
    },
    "m_InputSettings": {
        "ShiftModifier": false,
        "SendText": "",
        "PosixKillSignal": 0,
        "TargetProcess": {
            "deviceId": "",
            "name": "",
            "processId": 0,
            "exited": false
        }
    },
    "m_AutoScroll": 0
}